{
  "totals": {
    "obligation": 2917437912020.09,
    "outlay": 2901260742930.48,
    "total_budgetary_resources": 3038967420235.44
  },
  "results": [
    {
      "id": 803,
      "code": "073",
      "description": "Small Business Administration",
      "children": [],
      "award_count": null,
      "obligation": 908536127704.26,
      "outlay": 908786606183.53,
      "total_budgetary_resources": 911831498076.2
    },
    {
      "id": 456,
      "code": "020",
      "description": "Department of the Treasury",
      "children": [],
      "award_count": null,
      "obligation": 806353647867.01,
      "outlay": 806298440761.37,
      "total_budgetary_resources": 823078743243.94
    },
    {
      "id": 267,
      "code": "1601",
      "description": "Department of Labor",
      "children": [],
      "award_count": null,
      "obligation": 674529019904.37,
      "outlay": 670085381228.93,
      "total_budgetary_resources": 691796448750.36
    },
    {
      "id": 806,
      "code": "075",
      "description": "Department of Health and Human Services",
      "children": [],
      "award_count": null,
      "obligation": 241525659863.56,
      "outlay": 236495216249.61,
      "total_budgetary_resources": 244031296447.68
    },
    {
      "id": 95,
      "code": "012",
      "description": "Department of Agriculture",
      "children": [],
      "award_count": null,
      "obligation": 93808031826.22,
      "outlay": 92777935363.8,
      "total_budgetary_resources": 172407571519.07
    },
    {
      "id": 1068,
      "code": "091",
      "description": "Department of Education",
      "children": [],
      "award_count": null,
      "obligation": 57449127663.77,
      "outlay": 57166315609.7,
      "total_budgetary_resources": 57440781877.67
    },
    {
      "id": 766,
      "code": "070",
      "description": "Department of Homeland Security",
      "children": [],
      "award_count": null,
      "obligation": 41135956045.67,
      "outlay": 41124065143.81,
      "total_budgetary_resources": 43508896703.22
    },
    {
      "id": 731,
      "code": "069",
      "description": "Department of Transportation",
      "children": [],
      "award_count": null,
      "obligation": 36034323920.99,
      "outlay": 35626869173.85,
      "total_budgetary_resources": 36077752931.18
    },
    {
      "id": 561,
      "code": "036",
      "description": "Department of Veterans Affairs",
      "children": [],
      "award_count": null,
      "obligation": 19261132114.95,
      "outlay": 19159459178.63,
      "total_budgetary_resources": 19629500000
    },
    {
      "id": 882,
      "code": "086",
      "description": "Department of Housing and Urban Development",
      "children": [],
      "award_count": null,
      "obligation": 12658357476.78,
      "outlay": 11619193144.93,
      "total_budgetary_resources": 12464529426.93
    }
  ],
  "page_metadata": {
    "page": 1,
    "total": 39,
    "limit": 10,
    "next": 2,
    "previous": null,
    "hasNext": true,
    "hasPrevious": false
  }
}