{
  "datasets": [
    {
      "id": 10272,
      "name": "Child Labor Report (2016 to 2022)",
      "description": "This dataset contains information on child labor and forced labor worldwide from ILAB's three flagship reports: Findings on the Worst Forms of Child Labor; List of Goods Produced by Child Labor or Forced Labor; and List of Products Produced by Forced or Indentured Child Labor. This table contains data from the 2016 - 2022 reporting cycles. For more information, see ILAB's International Child Labor and Forced Labor Reports page. Please cite USDOL when using Child Labor Report data.",
      "tablename": "ILAB_sweat_toil_child_labor_report_2016_to_2022",
      "published_at": "2025-03-04T21:50:34",
      "dataset_type": 1,
      "agency_id": 24,
      "agency": {
        "name": "Bureau of International Labor Affairs",
        "abbr": "ILAB"
      },
      "frequency": "Static",
      "api_url": "Child_Labor_Report__2016_to_2022",
      "category_name": "Child Labor",
      "status": 4,
      "tag_list": [
        "age",
        "education",
        "inspection",
        "penalties",
        "sector",
        "violations",
        "other countries"
      ],
      "created_at": "2024-10-30T22:21:37",
      "updated_at": "2025-09-24T17:59:34",
      "tablename_alias": null,
      "category_id": 6,
      "category": {
        "name": "Child Labor"
      }
    },
    {
      "id": 10294,
      "name": "ImportWatch_Goods_HS",
      "description": "ImportWatch datasets match essential information on foreign labor abuses from ILAB's three flagship reports (Findings on the Worst Forms of Child Labor; List of Goods Produced by Child Labor or Forced Labor; and List of Products Produced by Forced or Indentured Child Labor) with U.S. import trade data, including Harmonized Tariff Schedule Codes, to empower users to identify high-risk imports, avoid penalties, and strengthen compliance with U.S. labor standards. This helps ensure that unfair trade practices abroad do not undercut compliant firms at home, stifle U.S. economic growth, or put American businesses at a disadvantage. There are 3 tables combining data from ILAB's essential reporting with U.S. import trade data. For more information, see ILAB's reports page (https://www.dol.gov/agencies/ilab/resources/reports/child-labor) and Import Watch page (https://www.dol.gov/agencies/ilab/importwatch). Please cite USDOL when using ImportWatch data.",
      "tablename": "ILAB_ImportWatch_Goods_HS",
      "published_at": "2025-11-19T19:48:09",
      "dataset_type": 1,
      "agency_id": 24,
      "agency": {
        "name": "Bureau of International Labor Affairs",
        "abbr": "ILAB"
      },
      "frequency": "Ad-Hoc",
      "api_url": "ImportWatch_Goods_HS",
      "category_name": "Child Labor",
      "status": 4,
      "tag_list": [],
      "created_at": "2025-09-24T16:17:26",
      "updated_at": "2025-11-19T20:19:43",
      "tablename_alias": null,
      "category_id": 6,
      "category": {
        "name": "Child Labor"
      }
    },
    {
      "id": 10295,
      "name": "ImportWatch_Core_Data",
      "description": "ImportWatch datasets match essential information on foreign labor abuses from ILAB's three flagship reports (Findings on the Worst Forms of Child Labor; List of Goods Produced by Child Labor or Forced Labor; and List of Products Produced by Forced or Indentured Child Labor) with U.S. import trade data, including Harmonized Tariff Schedule Codes, to empower users to identify high-risk imports, avoid penalties, and strengthen compliance with U.S. labor standards. This helps ensure that unfair trade practices abroad do not undercut compliant firms at home, stifle U.S. economic growth, or put American businesses at a disadvantage. There are 3 tables combining data from ILAB's essential reporting with U.S. import trade data. For more information, see ILAB's reports page (https://www.dol.gov/agencies/ilab/resources/reports/child-labor) and Import Watch page (https://www.dol.gov/agencies/ilab/importwatch). Please cite USDOL when using ImportWatch data.",
      "tablename": "ILAB_ImportWatch_Core_Data",
      "published_at": "2025-09-24T18:11:16",
      "dataset_type": 1,
      "agency_id": 24,
      "agency": {
        "name": "Bureau of International Labor Affairs",
        "abbr": "ILAB"
      },
      "frequency": "Ad-Hoc",
      "api_url": "ImportWatch_Core_Data",
      "category_name": "Child Labor",
      "status": 4,
      "tag_list": [],
      "created_at": "2025-09-24T16:20:10",
      "updated_at": "2025-11-19T20:18:46",
      "tablename_alias": null,
      "category_id": 6,
      "category": {
        "name": "Child Labor"
      }
    },
    {
      "id": 10296,
      "name": "ImportWatch_Country_Codes",
      "description": "ImportWatch datasets match essential information on foreign labor abuses from ILAB's three flagship reports (Findings on the Worst Forms of Child Labor; List of Goods Produced by Child Labor or Forced Labor; and List of Products Produced by Forced or Indentured Child Labor) with U.S. import trade data, including Harmonized Tariff Schedule Codes, to empower users to identify high-risk imports, avoid penalties, and strengthen compliance with U.S. labor standards. This helps ensure that unfair trade practices abroad do not undercut compliant firms at home, stifle U.S. economic growth, or put American businesses at a disadvantage. There are 3 tables combining data from ILAB's essential reporting with U.S. import trade data. For more information, see ILAB's reports page (https://www.dol.gov/agencies/ilab/resources/reports/child-labor) and Import Watch page (https://www.dol.gov/agencies/ilab/importwatch). Please cite USDOL when using ImportWatch data.",
      "tablename": "ILAB_ImportWatch_Country_Codes",
      "published_at": "2025-09-24T18:11:30",
      "dataset_type": 1,
      "agency_id": 24,
      "agency": {
        "name": "Bureau of International Labor Affairs",
        "abbr": "ILAB"
      },
      "frequency": "Ad-Hoc",
      "api_url": "ImportWatch_Country_Codes",
      "category_name": "Child Labor",
      "status": 4,
      "tag_list": [],
      "created_at": "2025-09-24T16:22:34",
      "updated_at": "2025-11-19T20:19:07",
      "tablename_alias": null,
      "category_id": 6,
      "category": {
        "name": "Child Labor"
      }
    },
    {
      "id": 10297,
      "name": "LaborShield_ReportingData",
      "description": "LaborShield datasets empower companies to assess their supply chains, flag risks early, and act before they escalate into costly operational disruptions, reputational damage, or legal challenges. These datasets contain information on foreign labor abuses from ILAB's three flagship reports: Findings on the Worst Forms of Child Labor; List of Goods Produced by Child Labor or Forced Labor; and List of Products Produced by Forced or Indentured Child Labor. This information is also available in ILAB's app, LaborShield. For more information, see ILAB's reports page (https://www.dol.gov/agencies/ilab/resources/reports/child-labor). Please cite USDOL when using LaborShield data.",
      "tablename": "ILAB_LaborShield_ReportingData",
      "published_at": "2026-01-22T17:05:19",
      "dataset_type": 1,
      "agency_id": 24,
      "agency": {
        "name": "Bureau of International Labor Affairs",
        "abbr": "ILAB"
      },
      "frequency": "Ad-Hoc",
      "api_url": "LaborShield_ReportingData",
      "category_name": "Child Labor",
      "status": 4,
      "tag_list": [],
      "created_at": "2025-09-24T16:33:40",
      "updated_at": "2026-01-22T17:16:55",
      "tablename_alias": null,
      "category_id": 6,
      "category": {
        "name": "Child Labor"
      }
    },
    {
      "id": 10300,
      "name": "LaborShield_Goods",
      "description": "LaborShield datasets empower companies to assess their supply chains, flag risks early, and act before they escalate into costly operational disruptions, reputational damage, or legal challenges. These datasets contain information on foreign labor abuses from ILAB's three flagship reports: Findings on the Worst Forms of Child Labor; List of Goods Produced by Child Labor or Forced Labor; and List of Products Produced by Forced or Indentured Child Labor. This information is also available in ILAB's app, LaborShield. For more information, see ILAB's reports page (https://www.dol.gov/agencies/ilab/resources/reports/child-labor). Please cite USDOL when using LaborShield data.",
      "tablename": "ILAB_LaborShield_Goods",
      "published_at": "2026-01-22T17:06:02",
      "dataset_type": 1,
      "agency_id": 24,
      "agency": {
        "name": "Bureau of International Labor Affairs",
        "abbr": "ILAB"
      },
      "frequency": "Ad-Hoc",
      "api_url": "LaborShield_Goods",
      "category_name": "Child Labor",
      "status": 4,
      "tag_list": [],
      "created_at": "2025-09-24T16:47:32",
      "updated_at": "2026-01-22T17:16:22",
      "tablename_alias": null,
      "category_id": 6,
      "category": {
        "name": "Child Labor"
      }
    },
    {
      "id": 10302,
      "name": "LaborShield_SuggestedActions",
      "description": "LaborShield datasets empower companies to assess their supply chains, flag risks early, and act before they escalate into costly operational disruptions, reputational damage, or legal challenges. These datasets contain information on foreign labor abuses from ILAB's three flagship reports: Findings on the Worst Forms of Child Labor; List of Goods Produced by Child Labor or Forced Labor; and List of Products Produced by Forced or Indentured Child Labor. This information is also available in ILAB's app, LaborShield. For more information, see ILAB's reports page (https://www.dol.gov/agencies/ilab/resources/reports/child-labor). Please cite USDOL when using LaborShield data.",
      "tablename": "ILAB_LaborShield_SuggestedActions",
      "published_at": "2026-01-22T17:06:51",
      "dataset_type": 1,
      "agency_id": 24,
      "agency": {
        "name": "Bureau of International Labor Affairs",
        "abbr": "ILAB"
      },
      "frequency": "Ad-Hoc",
      "api_url": "LaborShield_SuggestedActions",
      "category_name": "Child Labor",
      "status": 4,
      "tag_list": [],
      "created_at": "2025-09-24T18:59:05",
      "updated_at": "2026-01-22T17:17:06",
      "tablename_alias": null,
      "category_id": 6,
      "category": {
        "name": "Child Labor"
      }
    },
    {
      "id": 10278,
      "name": "National Database of Childcare Prices (NDCP)",
      "description": "*UPDATED* The National Database of Childcare Prices (NDCP) is the most comprehensive federal source of childcare prices at the county level. The database offers childcare price data by childcare provider type, age of children, and county characteristics. Data are available from 2008 to 2022. The technical guide and more information can be found on our website: https://www.dol.gov/agencies/wb/topics/featured-childcare",
      "tablename": "WB_ndcp",
      "published_at": "2024-11-20T21:06:06",
      "dataset_type": 1,
      "agency_id": 3,
      "agency": {
        "name": "Women's Bureau",
        "abbr": "WB"
      },
      "frequency": "Ad-Hoc",
      "api_url": "ndcp",
      "category_name": "Statistical",
      "status": 4,
      "tag_list": [
        "county",
        "expenditures",
        "childcare",
        "persons"
      ],
      "created_at": "2024-11-20T20:27:56",
      "updated_at": "2026-01-22T15:27:27",
      "tablename_alias": null,
      "category_id": 12,
      "category": {
        "name": "Statistical"
      }
    },
    {
      "id": 10227,
      "name": "Accident",
      "description": "This dataset contains information on all accidents, injuries and illnesses reported by mine operators and contractors beginning on 1/1/1983. The data in the table is obtained from the Mine Accident, Injury and Illness Report form (MSHA Form 7000-1). It provides information about the accident/injury/illness such as type, mine location, lost days and the degree of injury. Document number is the unique key for this data.",
      "tablename": "MSHA_accident",
      "published_at": "2024-10-11T19:50:24",
      "dataset_type": 1,
      "agency_id": 20,
      "agency": {
        "name": "Mine Safety and Health Administration",
        "abbr": "MSHA"
      },
      "frequency": "Weekly",
      "api_url": "accident",
      "category_name": "Enforcement",
      "status": 4,
      "tag_list": [
        "accidents",
        "contractors",
        "controllers",
        "fatalities",
        "injury or illness",
        "mines",
        "occupations",
        "operators",
        "state"
      ],
      "created_at": "2024-10-11T19:32:18",
      "updated_at": "2024-10-11T19:50:55",
      "tablename_alias": null,
      "category_id": 13,
      "category": {
        "name": "Enforcement"
      }
    },
    {
      "id": 10228,
      "name": "Address of Records - Mines",
      "description": "This dataset contains mine addresses for all mines in the database except for Abandoned mines prior to 1998 from MSHA's legacy system. The address is the one entered by the mine operator at the time a Legal ID form is completed for a requested mine identification number. It is updated by MSHA district offices as required. The Mine ID is the unique key for this data.\r\n(Includes Abandoned or Abandoned and Sealed Mines)\r\nNote: Address of Record is not necessarily the same as Mine Location Address.",
      "tablename": "MSHA_address_of_records_mines",
      "published_at": "2024-10-11T20:53:26",
      "dataset_type": 1,
      "agency_id": 20,
      "agency": {
        "name": "Mine Safety and Health Administration",
        "abbr": "MSHA"
      },
      "frequency": "Weekly",
      "api_url": "address_of_records_mines",
      "category_name": "Enforcement",
      "status": 4,
      "tag_list": [
        "address",
        "industries",
        "mines",
        "state"
      ],
      "created_at": "2024-10-11T19:47:03",
      "updated_at": "2024-10-11T21:14:20",
      "tablename_alias": null,
      "category_id": 13,
      "category": {
        "name": "Enforcement"
      }
    }
  ],
  "meta": {
    "current_page": 1,
    "next_page": 2,
    "prev_page": null,
    "total_pages": 5,
    "total_count": 42
  }
}