{
  "page_metadata": {
    "page": 1,
    "total": 111,
    "limit": 5,
    "next": 2,
    "previous": null,
    "hasNext": true,
    "hasPrevious": false
  },
  "results": [
    {
      "agency_name": "Department of Health and Human Services",
      "abbreviation": "HHS",
      "toptier_code": "075",
      "current_total_budget_authority_amount": 2864471437234.22,
      "periods": [
        {
          "period": 2,
          "quarter": 1,
          "submission_dates": {
            "publication_date": "2024-01-08 21:36:37.841471+00",
            "certification_date": "2024-02-13 18:43:52.85441+00"
          },
          "quarterly": false
        },
        {
          "period": 3,
          "quarter": 1,
          "submission_dates": {
            "publication_date": "2024-01-31 21:37:36.562334+00",
            "certification_date": "2024-02-13 18:45:57.610854+00"
          },
          "quarterly": false
        },
        {
          "period": 4,
          "quarter": 2,
          "submission_dates": {
            "publication_date": "2024-03-01 15:28:48.190545+00",
            "certification_date": "2024-05-13 18:22:23.314893+00"
          },
          "quarterly": false
        },
        {
          "period": 5,
          "quarter": 2,
          "submission_dates": {
            "publication_date": "2024-03-29 14:11:17.728649+00",
            "certification_date": "2024-05-13 18:23:08.185851+00"
          },
          "quarterly": false
        },
        {
          "period": 6,
          "quarter": 2,
          "submission_dates": {
            "publication_date": "2024-04-29 20:16:53.890882+00",
            "certification_date": "2024-05-13 18:23:37.47271+00"
          },
          "quarterly": false
        },
        {
          "period": 7,
          "quarter": 3,
          "submission_dates": {
            "publication_date": "2024-05-30 20:47:13.719972+00",
            "certification_date": "2024-08-13 20:28:16.372616+00"
          },
          "quarterly": false
        },
        {
          "period": 8,
          "quarter": 3,
          "submission_dates": {
            "publication_date": "2024-07-02 14:18:07.732262+00",
            "certification_date": "2024-08-13 20:28:40.85938+00"
          },
          "quarterly": false
        },
        {
          "period": 9,
          "quarter": 3,
          "submission_dates": {
            "publication_date": "2024-07-29 14:23:09.354351+00",
            "certification_date": "2024-08-13 20:29:07.881915+00"
          },
          "quarterly": false
        },
        {
          "period": 10,
          "quarter": 4,
          "submission_dates": {
            "publication_date": "2024-08-29 17:21:16.556304+00",
            "certification_date": "2024-11-15 20:24:46.388037+00"
          },
          "quarterly": false
        },
        {
          "period": 11,
          "quarter": 4,
          "submission_dates": {
            "publication_date": "2024-10-01 16:12:09.367751+00",
            "certification_date": "2024-11-15 20:25:38.498548+00"
          },
          "quarterly": false
        },
        {
          "period": 12,
          "quarter": 4,
          "submission_dates": {
            "publication_date": "2024-11-08 13:44:46.479517+00",
            "certification_date": "2024-11-15 20:25:56.802096+00"
          },
          "quarterly": false
        }
      ]
    },
    {
      "agency_name": "Department of the Treasury",
      "abbreviation": "TREAS",
      "toptier_code": "020",
      "current_total_budget_authority_amount": 2203032212292.41,
      "periods": [
        {
          "period": 2,
          "quarter": 1,
          "submission_dates": {
            "publication_date": "2024-01-08 15:59:21.576536+00",
            "certification_date": "2024-01-08 15:59:36.023956+00"
          },
          "quarterly": false
        },
        {
          "period": 3,
          "quarter": 1,
          "submission_dates": {
            "publication_date": "2024-01-31 20:13:09.191167+00",
            "certification_date": "2024-01-31 20:13:22.135102+00"
          },
          "quarterly": false
        },
        {
          "period": 4,
          "quarter": 2,
          "submission_dates": {
            "publication_date": "2024-03-01 20:00:29.313035+00",
            "certification_date": "2024-03-01 20:00:44.232549+00"
          },
          "quarterly": false
        },
        {
          "period": 5,
          "quarter": 2,
          "submission_dates": {
            "publication_date": "2024-03-29 17:49:22.945421+00",
            "certification_date": "2024-03-29 17:49:49.015415+00"
          },
          "quarterly": false
        },
        {
          "period": 6,
          "quarter": 2,
          "submission_dates": {
            "publication_date": "2024-04-26 18:27:24.180723+00",
            "certification_date": "2024-04-26 18:27:43.568793+00"
          },
          "quarterly": false
        },
        {
          "period": 7,
          "quarter": 3,
          "submission_dates": {
            "publication_date": "2024-05-30 19:17:33.330513+00",
            "certification_date": "2024-05-30 19:17:47.894295+00"
          },
          "quarterly": false
        },
        {
          "period": 8,
          "quarter": 3,
          "submission_dates": {
            "publication_date": "2024-07-02 19:14:13.270313+00",
            "certification_date": "2024-07-02 19:14:25.922126+00"
          },
          "quarterly": false
        },
        {
          "period": 9,
          "quarter": 3,
          "submission_dates": {
            "publication_date": "2024-07-30 19:29:36.046927+00",
            "certification_date": "2024-07-30 19:29:51.070724+00"
          },
          "quarterly": false
        },
        {
          "period": 10,
          "quarter": 4,
          "submission_dates": {
            "publication_date": "2024-08-29 19:32:42.705855+00",
            "certification_date": "2024-08-29 19:32:59.082067+00"
          },
          "quarterly": false
        },
        {
          "period": 11,
          "quarter": 4,
          "submission_dates": {
            "publication_date": "2024-10-01 19:43:49.071543+00",
            "certification_date": "2024-10-01 19:44:03.069468+00"
          },
          "quarterly": false
        },
        {
          "period": 12,
          "quarter": 4,
          "submission_dates": {
            "publication_date": "2024-11-14 21:30:30.651352+00",
            "certification_date": "2024-11-14 21:30:52.345414+00"
          },
          "quarterly": false
        }
      ]
    },
    {
      "agency_name": "Department of Defense",
      "abbreviation": "DOD",
      "toptier_code": "097",
      "current_total_budget_authority_amount": 1991791156124.69,
      "periods": [
        {
          "period": 2,
          "quarter": 1,
          "submission_dates": {
            "publication_date": "2023-12-29 15:55:14.710189+00",
            "certification_date": "2024-01-03 15:01:37.425683+00"
          },
          "quarterly": false
        },
        {
          "period": 3,
          "quarter": 1,
          "submission_dates": {
            "publication_date": "2024-10-29 23:38:31.503296+00",
            "certification_date": "2024-10-29 23:38:31.541965+00"
          },
          "quarterly": false
        },
        {
          "period": 4,
          "quarter": 2,
          "submission_dates": {
            "publication_date": "2024-02-29 23:42:07.606633+00",
            "certification_date": "2024-03-01 12:32:59.139725+00"
          },
          "quarterly": false
        },
        {
          "period": 5,
          "quarter": 2,
          "submission_dates": {
            "publication_date": "2024-03-25 20:15:45.708293+00",
            "certification_date": "2024-03-27 09:08:36.707459+00"
          },
          "quarterly": false
        },
        {
          "period": 6,
          "quarter": 2,
          "submission_dates": {
            "publication_date": "2024-10-29 23:33:03.457584+00",
            "certification_date": "2024-10-29 23:33:03.528574+00"
          },
          "quarterly": false
        },
        {
          "period": 7,
          "quarter": 3,
          "submission_dates": {
            "publication_date": "2024-05-24 18:56:44.581799+00",
            "certification_date": "2024-05-24 19:05:25.94364+00"
          },
          "quarterly": false
        },
        {
          "period": 8,
          "quarter": 3,
          "submission_dates": {
            "publication_date": "2024-06-28 15:36:28.392112+00",
            "certification_date": "2024-07-01 19:34:38.769222+00"
          },
          "quarterly": false
        },
        {
          "period": 9,
          "quarter": 3,
          "submission_dates": {
            "publication_date": "2024-10-29 23:39:22.700873+00",
            "certification_date": "2024-10-29 23:39:22.737003+00"
          },
          "quarterly": false
        },
        {
          "period": 10,
          "quarter": 4,
          "submission_dates": {
            "publication_date": "2024-08-26 18:28:52.797259+00",
            "certification_date": "2024-08-29 03:59:22.151466+00"
          },
          "quarterly": false
        },
        {
          "period": 11,
          "quarter": 4,
          "submission_dates": {
            "publication_date": "2024-09-27 22:48:38.536461+00",
            "certification_date": "2024-09-30 12:46:31.630049+00"
          },
          "quarterly": false
        },
        {
          "period": 12,
          "quarter": 4,
          "submission_dates": {
            "publication_date": "2025-01-09 00:35:09.186839+00",
            "certification_date": "2025-01-09 00:35:09.222088+00"
          },
          "quarterly": false
        }
      ]
    },
    {
      "agency_name": "Social Security Administration",
      "abbreviation": "SSA",
      "toptier_code": "028",
      "current_total_budget_authority_amount": 1610536647326.06,
      "periods": [
        {
          "period": 2,
          "quarter": 1,
          "submission_dates": {
            "publication_date": "2024-01-08 18:39:16.223161+00",
            "certification_date": "2024-01-10 16:11:14.26205+00"
          },
          "quarterly": false
        },
        {
          "period": 3,
          "quarter": 1,
          "submission_dates": {
            "publication_date": "2024-01-31 14:25:12.887393+00",
            "certification_date": "2024-02-02 03:44:32.899852+00"
          },
          "quarterly": false
        },
        {
          "period": 4,
          "quarter": 2,
          "submission_dates": {
            "publication_date": "2024-03-04 18:28:01.874412+00",
            "certification_date": "2024-03-04 18:59:05.408366+00"
          },
          "quarterly": false
        },
        {
          "period": 5,
          "quarter": 2,
          "submission_dates": {
            "publication_date": "2024-03-30 01:32:07.305154+00",
            "certification_date": "2024-04-04 21:58:52.897859+00"
          },
          "quarterly": false
        },
        {
          "period": 6,
          "quarter": 2,
          "submission_dates": {
            "publication_date": "2024-04-29 18:41:57.879131+00",
            "certification_date": "2024-05-20 15:43:12.129016+00"
          },
          "quarterly": false
        },
        {
          "period": 7,
          "quarter": 3,
          "submission_dates": {
            "publication_date": "2024-05-31 11:07:07.224352+00",
            "certification_date": "2024-06-03 14:58:49.052045+00"
          },
          "quarterly": false
        },
        {
          "period": 8,
          "quarter": 3,
          "submission_dates": {
            "publication_date": "2024-07-02 11:56:36.63029+00",
            "certification_date": "2024-07-03 14:30:03.369867+00"
          },
          "quarterly": false
        },
        {
          "period": 9,
          "quarter": 3,
          "submission_dates": {
            "publication_date": "2024-07-31 03:11:33.135917+00",
            "certification_date": "2024-08-03 15:11:19.135231+00"
          },
          "quarterly": false
        },
        {
          "period": 10,
          "quarter": 4,
          "submission_dates": {
            "publication_date": "2024-08-29 21:27:31.632158+00",
            "certification_date": "2024-09-03 19:51:55.819393+00"
          },
          "quarterly": false
        },
        {
          "period": 11,
          "quarter": 4,
          "submission_dates": {
            "publication_date": "2024-10-02 02:42:31.43662+00",
            "certification_date": "2024-10-25 14:54:19.872814+00"
          },
          "quarterly": false
        },
        {
          "period": 12,
          "quarter": 4,
          "submission_dates": {
            "publication_date": "2024-11-15 03:28:34.061125+00",
            "certification_date": "2024-11-15 14:03:36.221815+00"
          },
          "quarterly": false
        }
      ]
    },
    {
      "agency_name": "Department of Agriculture",
      "abbreviation": "USDA",
      "toptier_code": "012",
      "current_total_budget_authority_amount": 437203384922.49,
      "periods": [
        {
          "period": 2,
          "quarter": 1,
          "submission_dates": {
            "publication_date": "2025-05-30 13:47:04.224198+00",
            "certification_date": "2025-05-30 13:47:04.329157+00"
          },
          "quarterly": false
        },
        {
          "period": 3,
          "quarter": 1,
          "submission_dates": {
            "publication_date": "2025-05-22 17:48:34.67568+00",
            "certification_date": "2025-05-22 17:48:35.03305+00"
          },
          "quarterly": false
        },
        {
          "period": 4,
          "quarter": 2,
          "submission_dates": {
            "publication_date": "2025-05-22 16:59:24.690999+00",
            "certification_date": "2025-05-22 16:59:24.721702+00"
          },
          "quarterly": false
        },
        {
          "period": 5,
          "quarter": 2,
          "submission_dates": {
            "publication_date": "2025-05-22 16:58:40.421508+00",
            "certification_date": "2025-05-22 16:58:40.45614+00"
          },
          "quarterly": false
        },
        {
          "period": 6,
          "quarter": 2,
          "submission_dates": {
            "publication_date": "2025-05-22 16:51:14.491695+00",
            "certification_date": "2025-05-22 16:51:14.523762+00"
          },
          "quarterly": false
        },
        {
          "period": 7,
          "quarter": 3,
          "submission_dates": {
            "publication_date": "2025-05-22 16:44:39.348259+00",
            "certification_date": "2025-05-22 16:44:39.386082+00"
          },
          "quarterly": false
        },
        {
          "period": 8,
          "quarter": 3,
          "submission_dates": {
            "publication_date": "2025-05-22 15:05:24.536583+00",
            "certification_date": "2025-05-22 15:05:24.61136+00"
          },
          "quarterly": false
        },
        {
          "period": 9,
          "quarter": 3,
          "submission_dates": {
            "publication_date": "2025-05-21 20:43:45.438922+00",
            "certification_date": "2025-05-21 20:43:46.157682+00"
          },
          "quarterly": false
        },
        {
          "period": 10,
          "quarter": 4,
          "submission_dates": {
            "publication_date": "2025-05-21 20:01:34.985767+00",
            "certification_date": "2025-05-21 20:01:35.486348+00"
          },
          "quarterly": false
        },
        {
          "period": 11,
          "quarter": 4,
          "submission_dates": {
            "publication_date": "2025-05-21 19:42:47.462999+00",
            "certification_date": "2025-05-21 19:42:48.489884+00"
          },
          "quarterly": false
        },
        {
          "period": 12,
          "quarter": 4,
          "submission_dates": {
            "publication_date": "2025-06-13 14:40:56.847229+00",
            "certification_date": "2025-06-13 14:40:56.890685+00"
          },
          "quarterly": false
        }
      ]
    }
  ],
  "messages": []
}