{
  "page_metadata": {
    "page": 1,
    "total": 111,
    "limit": 5,
    "next": 2,
    "previous": null,
    "hasNext": true,
    "hasPrevious": false
  },
  "results": [
    {
      "agency_name": "Department of the Treasury",
      "abbreviation": "TREAS",
      "toptier_code": "020",
      "agency_id": 456,
      "current_total_budget_authority_amount": 4993527806462.28,
      "recent_publication_date": "2024-04-26T18:27:24.180723Z",
      "recent_publication_date_certified": true,
      "tas_account_discrepancies_totals": {
        "gtas_obligation_total": 1754370714435.58,
        "tas_accounts_total": 877185357217.79,
        "tas_obligation_not_in_gtas_total": 0,
        "missing_tas_accounts_count": 0
      },
      "obligation_difference": 0,
      "unlinked_contract_award_count": 52,
      "unlinked_assistance_award_count": 0,
      "assurance_statement_url": "https://files.usaspending.gov/agency_submissions/2024-P06-020_Department%20of%20the%20Treasury%20(TREAS)-Agency_Comments.txt"
    },
    {
      "agency_name": "Department of Health and Human Services",
      "abbreviation": "HHS",
      "toptier_code": "075",
      "agency_id": 806,
      "current_total_budget_authority_amount": 2826411039095.64,
      "recent_publication_date": "2024-04-29T20:16:53.890882Z",
      "recent_publication_date_certified": true,
      "tas_account_discrepancies_totals": {
        "gtas_obligation_total": 2453894985850.68,
        "tas_accounts_total": 1227262209769.2,
        "tas_obligation_not_in_gtas_total": 7341672.08,
        "missing_tas_accounts_count": 4
      },
      "obligation_difference": 0,
      "unlinked_contract_award_count": 265,
      "unlinked_assistance_award_count": 304,
      "assurance_statement_url": "https://files.usaspending.gov/agency_submissions/2024-P06-075_Department%20of%20Health%20and%20Human%20Services%20(HHS)-Agency_Comments.txt"
    },
    {
      "agency_name": "Department of Defense",
      "abbreviation": "DOD",
      "toptier_code": "097",
      "agency_id": 1173,
      "current_total_budget_authority_amount": 2021560385009.98,
      "recent_publication_date": "2024-10-29T23:33:03.457584Z",
      "recent_publication_date_certified": true,
      "tas_account_discrepancies_totals": {
        "gtas_obligation_total": 1446233044863.44,
        "tas_accounts_total": 723116522431.72,
        "tas_obligation_not_in_gtas_total": 0,
        "missing_tas_accounts_count": 0
      },
      "obligation_difference": 27994825933.42,
      "unlinked_contract_award_count": 40437,
      "unlinked_assistance_award_count": 1243,
      "assurance_statement_url": "https://files.usaspending.gov/agency_submissions/2024-P06-097_Department%20of%20Defense%20(DOD)-Agency_Comments.txt"
    },
    {
      "agency_name": "Social Security Administration",
      "abbreviation": "SSA",
      "toptier_code": "028",
      "agency_id": 539,
      "current_total_budget_authority_amount": 848849169941.71,
      "recent_publication_date": "2024-04-29T18:41:57.879131Z",
      "recent_publication_date_certified": true,
      "tas_account_discrepancies_totals": {
        "gtas_obligation_total": 1583544522732.7,
        "tas_accounts_total": 791772261366.35,
        "tas_obligation_not_in_gtas_total": 0,
        "missing_tas_accounts_count": 0
      },
      "obligation_difference": 0,
      "unlinked_contract_award_count": 31,
      "unlinked_assistance_award_count": 0,
      "assurance_statement_url": "https://files.usaspending.gov/agency_submissions/2024-P06-028_Social%20Security%20Administration%20(SSA)-Agency_Comments.txt"
    },
    {
      "agency_name": "Department of Veterans Affairs",
      "abbreviation": "VA",
      "toptier_code": "036",
      "agency_id": 561,
      "current_total_budget_authority_amount": 407911753571.8,
      "recent_publication_date": "2024-06-24T16:36:34.895239Z",
      "recent_publication_date_certified": true,
      "tas_account_discrepancies_totals": {
        "gtas_obligation_total": 352306428313.36,
        "tas_accounts_total": 176153214156.68,
        "tas_obligation_not_in_gtas_total": 0,
        "missing_tas_accounts_count": 0
      },
      "obligation_difference": -0.67,
      "unlinked_contract_award_count": 9534,
      "unlinked_assistance_award_count": 35706,
      "assurance_statement_url": "https://files.usaspending.gov/agency_submissions/2024-P06-036_Department%20of%20Veterans%20Affairs%20(VA)-Agency_Comments.txt"
    }
  ],
  "messages": []
}